<?xml version="1.0" encoding="utf-8"?>
<!-- Generator: Adobe Illustrator 18.1.0, SVG Export Plug-In . SVG Version: 6.00 Build 0)  -->
<svg version="1.1" id="Layer_1" xmlns="http://www.w3.org/2000/svg" xmlns:xlink="http://www.w3.org/1999/xlink" x="0px" y="0px"
	 viewBox="0 0 348.8 137.1" enable-background="new 0 0 348.8 137.1" xml:space="preserve">
<g>
	<g>
		<path fill="#B3CD4C" d="M101,128.9L76.3,97H52V73h11v13h18.7L90,96.8V85h16V31H85v32H53V20h21v-9H11v82h17v31H17v-20H0V0h85v20h32
			v76h-16V128.9z M64,52h10V31H64V52z"/>
		<polygon fill="#24A698" points="17,137.1 17,104 0,104 0,0 85,0 85,63 53,63 53,31 64,31 64,52 74,52 74,11 11,11 11,93 28,93 
			28,110.6 41.9,96.9 49.6,104.7 		"/>
		<path fill="none" stroke="#B3CD4C" stroke-width="11" stroke-miterlimit="10" d="M5.8,98.8"/>
		<polygon fill="#B3CD4C" points="101,128.9 76.3,97 52,97 52,73 63,73 63,86 81.7,86 90,96.8 90,85 106,85 106,31 58,31 58,20 
			117,20 117,96 101,96 		"/>
		<linearGradient id="SVGID_1_" gradientUnits="userSpaceOnUse" x1="53.229" y1="25.3631" x2="106.7603" y2="25.3631">
			<stop  offset="0.4021" style="stop-color:#24A698"/>
			<stop  offset="1" style="stop-color:#B3CD4C"/>
		</linearGradient>
		<rect x="53.2" y="19.8" fill="url(#SVGID_1_)" width="53.5" height="11"/>
		<polygon fill="#0F7364" points="85,31 85,37.6 74,33.6 74,31 		"/>
	</g>
	<g>
		<path fill="#B3CD4C" d="M169.4,61.1c-1-1.2-2.2-2.1-3.7-2.8c-1.4-0.6-3.1-1-5-1c-1.9,0-3.7,0.4-5.3,1.1c-1.6,0.7-3,1.8-4.2,3.1
			c-1.2,1.3-2.1,2.9-2.8,4.7c-0.7,1.8-1,3.8-1,5.9c0,2.2,0.3,4.1,1,5.9c0.7,1.8,1.6,3.3,2.7,4.7c1.2,1.3,2.5,2.3,4.1,3.1
			c1.6,0.7,3.3,1.1,5.1,1.1c2.1,0,3.9-0.4,5.5-1.3c1.6-0.9,2.9-2.1,3.9-3.6l8.4,6.3c-1.9,2.7-4.4,4.7-7.4,6c-3,1.3-6,1.9-9.2,1.9
			c-3.6,0-6.9-0.6-9.9-1.7c-3-1.1-5.6-2.7-7.8-4.8c-2.2-2.1-3.9-4.6-5.1-7.6c-1.2-3-1.8-6.3-1.8-10c0-3.7,0.6-7,1.8-10
			c1.2-3,2.9-5.5,5.1-7.6c2.2-2.1,4.8-3.7,7.8-4.8c3-1.1,6.3-1.7,9.9-1.7c1.3,0,2.6,0.1,4,0.4c1.4,0.2,2.8,0.6,4.1,1.1
			c1.4,0.5,2.7,1.2,3.9,2.1c1.2,0.9,2.4,1.9,3.4,3.2L169.4,61.1z"/>
		<path fill="#B3CD4C" d="M193.5,72c0-3.7,0.6-7,1.8-10c1.2-3,2.9-5.5,5.1-7.6c2.2-2.1,4.8-3.7,7.8-4.8c3-1.1,6.3-1.7,9.9-1.7
			c3.6,0,6.9,0.6,9.9,1.7c3,1.1,5.6,2.7,7.8,4.8c2.2,2.1,3.9,4.6,5.1,7.6c1.2,3,1.8,6.3,1.8,10c0,3.7-0.6,7-1.8,10
			c-1.2,3-2.9,5.5-5.1,7.6c-2.2,2.1-4.8,3.7-7.8,4.8c-3,1.1-6.3,1.7-9.9,1.7c-3.6,0-6.9-0.6-9.9-1.7c-3-1.1-5.6-2.7-7.8-4.8
			c-2.2-2.1-3.9-4.6-5.1-7.6C194.2,79,193.5,75.7,193.5,72z M204,72c0,2.2,0.3,4.1,1,5.9c0.7,1.8,1.6,3.3,2.9,4.7
			c1.2,1.3,2.7,2.3,4.5,3.1c1.7,0.7,3.7,1.1,5.8,1.1c2.2,0,4.1-0.4,5.8-1.1c1.7-0.7,3.2-1.8,4.5-3.1c1.2-1.3,2.2-2.9,2.9-4.7
			c0.7-1.8,1-3.8,1-5.9c0-2.1-0.3-4.1-1-5.9c-0.7-1.8-1.6-3.4-2.9-4.7c-1.2-1.3-2.7-2.3-4.5-3.1c-1.7-0.7-3.7-1.1-5.8-1.1
			c-2.2,0-4.1,0.4-5.8,1.1c-1.7,0.7-3.2,1.8-4.5,3.1c-1.3,1.3-2.2,2.9-2.9,4.7C204.3,68,204,69.9,204,72z"/>
		<path fill="#B3CD4C" d="M262,49.2h17.7c2.3,0,4.5,0.2,6.6,0.7c2.1,0.5,3.9,1.2,5.5,2.3c1.6,1.1,2.8,2.5,3.7,4.3
			c0.9,1.8,1.4,4,1.4,6.7c0,3.2-0.8,6-2.5,8.2s-4.1,3.7-7.4,4.3l11.6,19.3h-12.1l-9.6-18.3h-5v18.3H262V49.2z M272.1,68.1h5.9
			c0.9,0,1.9,0,2.9-0.1c1-0.1,1.9-0.3,2.7-0.6c0.8-0.3,1.5-0.8,2-1.5c0.5-0.7,0.8-1.7,0.8-2.9c0-1.2-0.2-2.1-0.7-2.8
			c-0.5-0.7-1.1-1.2-1.8-1.6c-0.7-0.4-1.6-0.6-2.5-0.7c-0.9-0.1-1.9-0.2-2.8-0.2h-6.6V68.1z"/>
		<path fill="#B3CD4C" d="M316.6,49.2h31.1v9.3h-21V67h19.8v9.3h-19.8v9.3h22.2v9.3h-32.2V49.2z"/>
	</g>
	<g>
		<path fill="#24A698" d="M137,20h5.1l7.3,11.9h0V20h3.8v17.1h-4.9l-7.5-12.2h0v12.2H137V20z"/>
		<path fill="#24A698" d="M163.4,20H175v3.5h-7.8v3.2h7.4v3.5h-7.4v3.5h8.3v3.5h-12.1V20z"/>
		<path fill="#24A698" d="M183.2,20h4.1l2.7,11h0l3.6-11h3.5l3.6,11.3h0l2.9-11.3h3.8l-5,17.1H199l-3.8-11.8h0l-3.8,11.8h-3.2
			L183.2,20z"/>
		<path fill="#24A698" d="M238.1,31.4c0,0.8-0.1,1.6-0.2,2.3c-0.1,0.7-0.4,1.4-0.8,2c-0.4,0.6-0.9,1-1.7,1.4
			c-0.7,0.3-1.7,0.5-2.8,0.5c-1.4,0-2.5-0.3-3.4-1c-0.9-0.6-1.5-1.7-1.8-3l3.5-0.8c0,0.4,0.2,0.8,0.6,1.1c0.3,0.3,0.7,0.4,1.1,0.4
			c0.4,0,0.8-0.1,1-0.3c0.2-0.2,0.4-0.5,0.5-0.8c0.1-0.3,0.2-0.7,0.2-1.1c0-0.4,0-0.7,0-1.1V20h3.8V31.4z"/>
		<path fill="#24A698" d="M248,20h11.6v3.5h-7.8v3.2h7.4v3.5h-7.4v3.5h8.3v3.5H248V20z"/>
		<path fill="#24A698" d="M269.6,20h6.6c0.9,0,1.7,0.1,2.5,0.3c0.8,0.2,1.5,0.5,2.1,0.8c0.6,0.4,1.1,0.9,1.4,1.6
			c0.3,0.7,0.5,1.5,0.5,2.5c0,1.2-0.3,2.2-0.9,3.1s-1.5,1.4-2.8,1.6l4.3,7.2h-4.5l-3.6-6.8h-1.9v6.8h-3.8V20z M273.4,27.1h2.2
			c0.3,0,0.7,0,1.1,0c0.4,0,0.7-0.1,1-0.2s0.6-0.3,0.8-0.6c0.2-0.3,0.3-0.6,0.3-1.1c0-0.4-0.1-0.8-0.3-1s-0.4-0.5-0.7-0.6
			c-0.3-0.1-0.6-0.2-0.9-0.3s-0.7-0.1-1-0.1h-2.5V27.1z"/>
		<path fill="#24A698" d="M300.2,24.2c-0.3-0.4-0.7-0.7-1.2-0.9s-1-0.3-1.5-0.3c-0.3,0-0.6,0-0.8,0.1c-0.3,0.1-0.6,0.2-0.8,0.3
			c-0.3,0.1-0.5,0.3-0.6,0.5c-0.2,0.2-0.2,0.5-0.2,0.8c0,0.5,0.2,0.9,0.6,1.2c0.4,0.3,0.9,0.5,1.5,0.7s1.2,0.4,1.9,0.6
			c0.7,0.2,1.3,0.5,1.9,0.8c0.6,0.4,1.1,0.8,1.5,1.4c0.4,0.6,0.6,1.4,0.6,2.4c0,1-0.2,1.8-0.5,2.5c-0.4,0.7-0.8,1.3-1.4,1.8
			c-0.6,0.5-1.3,0.8-2.1,1c-0.8,0.2-1.6,0.3-2.5,0.3c-1.1,0-2.1-0.2-3.1-0.5c-1-0.3-1.8-0.9-2.7-1.6l2.7-2.9
			c0.4,0.5,0.9,0.9,1.5,1.2s1.2,0.4,1.8,0.4c0.3,0,0.6,0,0.9-0.1c0.3-0.1,0.6-0.2,0.8-0.3c0.2-0.1,0.5-0.3,0.6-0.6
			c0.2-0.2,0.2-0.5,0.2-0.8c0-0.5-0.2-0.9-0.6-1.2c-0.4-0.3-0.9-0.6-1.5-0.8c-0.6-0.2-1.2-0.4-1.9-0.6c-0.7-0.2-1.3-0.5-1.9-0.8
			s-1.1-0.8-1.5-1.4c-0.4-0.6-0.6-1.3-0.6-2.3c0-0.9,0.2-1.7,0.5-2.4c0.4-0.7,0.8-1.3,1.4-1.7c0.6-0.5,1.3-0.8,2.1-1.1
			s1.6-0.4,2.4-0.4c1,0,1.9,0.1,2.8,0.4c0.9,0.3,1.7,0.7,2.4,1.4L300.2,24.2z"/>
		<path fill="#24A698" d="M312.3,20h11.6v3.5h-7.8v3.2h7.4v3.5h-7.4v3.5h8.3v3.5h-12.1V20z"/>
		<path fill="#24A698" d="M338.1,29.8l-6.4-9.8h4.7l3.6,6.4l3.8-6.4h4.5l-6.4,9.8v7.3h-3.8V29.8z"/>
	</g>
</g>
</svg>
